[
    {
        "_key": "27297",
        "_id": "projects/27297",
        "_rev": "_f8CDRKq---",
        "projects": [
            {
                "id": "f9f21501-04c7-476e-8e25-347c4beb5d4e",
                "name": "project_1",
                "description": "description_project1",
                "status": "In progress",
                "priority": "High",
                "dateStart": "2020-01-01"
            },
            {
                "id": "d0d3d64c-b228-4206-b249-9b7753acd45d",
                "name": "project_2",
                "description": "description_project2",
                "status": "In progress",
                "priority": "High",
                "dateStart": "2020-01-02"
            },
            {
                "id": "94d8d61c-47b9-47f5-bc03-7f08b6017ee1",
                "name": "project_3",
                "description": "description_project3",
                "status": "Complete",
                "priority": "Low",
                "dateStart": "2020-01-03"
            },
            {
                "id": "016de7fb-92e4-40c9-8e06-ac8953f38b6e",
                "name": "project_4",
                "description": "description_project4",
                "status": "Complete",
                "priority": "Low",
                "dateStart": "2020-01-04"
            },
            {
                "id": "ec66d32a-dc3b-485a-a426-78c1c15fcf32",
                "name": "project_5",
                "description": "description_project5",
                "status": "In progress",
                "priority": "Low",
                "dateStart": "2020-01-05"
            },
            {
                "id": "8b4a2ca2-4477-4802-906e-4bbca3bbe890",
                "name": "project_6",
                "description": "description_project6",
                "status": "In progress",
                "priority": "Low",
                "dateStart": "2020-01-06"
            },
            {
                "id": "d1af2724-2021-4c26-b67e-ae64c4be9ee6",
                "name": "project_7",
                "description": "description_project7",
                "status": "Not started",
                "priority": "High",
                "dateStart": "2020-01-07"
            },
            {
                "id": "99c5294f-7f93-4803-85d2-2e641507b431",
                "name": "project_8",
                "description": "description_project8",
                "status": "Not started",
                "priority": "High",
                "dateStart": "2020-01-08"
            },
            {
                "id": "5e1da472-b3bd-4370-921b-bae18a0f53bc",
                "name": "project_9",
                "description": "description_project9",
                "status": "Complete",
                "priority": "High",
                "dateStart": "2020-01-09"
            },
            {
                "id": "369df646-9bae-45a6-b4c4-73dda9110273",
                "name": "project_10",
                "description": "description_project10",
                "status": "Complete",
                "priority": "Medium",
                "dateStart": "2020-01-10"
            }
        ]
    }
]